running ./lab5_primjeri/test01/test.in


running ./lab5_primjeri/test02/test.in


running ./lab5_primjeri/test03/test.in


running ./lab5_primjeri/test04/test.in


running ./lab5_primjeri/test05/test.in


running ./lab5_primjeri/test06/test.in


running ./lab5_primjeri/test07/test.in


running ./lab5_primjeri/test08/test.in


running ./lab5_primjeri/test09/test.in


running ./lab5_primjeri/test10/test.in


